format 224
"multiDiagTools"
  revision 42
  modified_by 2 "philippe"
  cpp_root_dir "cpp_gen/"


  
  // class settings
  default_attribute_visibility private default_relation_visibility private default_operation_visibility public
  
  classdiagramsettings draw_all_relations yes hide_attributes no hide_operations no hide_getset_operations no hide_ports no show_members_full_definition yes show_members_visibility yes show_members_stereotype yes show_members_context no show_members_multiplicity yes show_members_initialization no show_attribute_modifiers no member_max_width 127 show_parameter_dir yes show_parameter_name yes package_name_in_tab no class_drawing_mode natural drawing_language uml show_context_mode no auto_label_position yes show_relation_modifiers no show_relation_visibility no show_infonote no shadow yes gradient none show_stereotype_properties no end
  
  classcompositediagramsettings auto_label_position yes draw_all_relations yes shadow yes gradient none end
  
  usecasediagramsettings package_name_in_tab no show_context_mode no auto_label_position yes draw_all_relations yes class_drawing_mode actor shadow yes gradient none show_stereotype_properties no end
  
  sequencediagramsettings show_full_operations_definition no show_class_of_operation no write_horizontally yes instances_drawing_mode natural drawing_language uml draw_all_relations yes shadow yes gradient none show_stereotype_properties no show_class_context_mode no show_msg_context_mode no end
  
  collaborationdiagramsettings show_full_operations_definition no show_class_of_operation no show_hierarchical_rank no write_horizontally yes instances_drawing_mode natural drawing_language uml package_name_in_tab no show_class_pack_context_mode no show_msg_context_mode no draw_all_relations yes shadow yes gradient none show_stereotype_properties no end
  
  objectdiagramsettings write_horizontally yes package_name_in_tab no show_class_pack_context_mode no auto_label_position yes draw_all_relations yes shadow yes gradient none show_stereotype_properties no end
  
  objectcompositediagramsettings auto_label_position yes draw_all_relations yes shadow yes gradient none end
  
  componentdiagramsettings package_name_in_tab no show_context_mode no auto_label_position yes draw_all_relations yes shadow yes gradient none
   draw_component_as_icon no show_component_req_prov no show_component_rea no show_stereotype_properties no end
  
  deploymentdiagramsettings package_name_in_tab no show_context_mode no write_horizontally yes auto_label_position yes draw_all_relations yes shadow yes gradient none
   draw_component_as_icon no show_component_req_prov no show_component_rea no show_stereotype_properties no end
  
  statediagramsettings package_name_in_tab no show_context_mode no auto_label_position yes write_label_horizontally yes show_trans_definition no draw_all_relations yes shadow yes gradient none
   show_activities yes region_horizontally yes drawing_language uml show_stereotype_properties no end
  
  activitydiagramsettings package_name_in_tab no show_context_mode no show_opaque_action_definition no auto_label_position yes write_label_horizontally no draw_all_relations yes shadow yes gradient none
   show_infonote yes drawing_language uml show_stereotype_properties no end
  
  class_color lightmediumblue duration_color transparent continuation_color gray note_color blue fragment_color transparent subject_color transparent usecase_color yellow package_color transparent component_color green artifact_color green deploymentnode_color gray state_color yellow stateaction_color transparent activity_color transparent activityregion_color transparent activitypartition_color transparent activityaction_color transparent parameterpin_color white generalization_color black 
  dpi 0
  font_size 10
  diagram_format A4

  image_root_dir ""


  mark_for_import
  
  ncouples 13
  key "html dir" value "/tmp/"
  key "gxmi path" value "/home/philippe/programmation/mdt-library-uml/bouml-6/xmi2/mdt-uml-2.0.xmi"
  key "gxmi no model" value "no"
  key "gxmi gen views" value "no"
  key "gxmi encoding" value "UTF-8"
  key "gxmi umlversion" value "20"
  key "gxmi pk prefix" value "no"
  key "gxmi vis prefix" value "no"
  key "gxmi primitive type" value "no"
  key "gxmi gen extensions" value "no"
  key "gxmi gen eclipse" value "no"
  key "gxmi comment exporter" value "no"
  key "gxmi linefeed" value "no"
  package_ref 409858 // principes

  package_ref 766082 // apps

  package_ref 401794 // Mdt

  package_ref 281986 // mdtcsv

  package_ref 128002 // mdtutils

  package_ref 174978 // mdtutilsgui

  package_ref 234498 // mdtdatabase

  package_ref 168322 // mdtport

  package_ref 148226 // mdtserialportLEGACY

  package_ref 161538 // mdtdevice

  package_ref 181506 // mdttools

  package_ref 134530 // mdtTest

  package_ref 134786 // Qt

  package_ref 634882 // Qwt

  package_ref 134658 // ImportZms

  package_ref 221058 // sandbox

  package_ref 260866 // boost

  package_ref 275458 // std

  package_ref 476418 // odb
end
